<html>
<body bgcolor='#ffffff' 
topmargin='0' 
leftmargin='0'>
<style type="text/css">
	
.k1 {
	font-family: 'lucida grande',verdana,sans-serif; 
	background-color: rgb(250, 250, 250); 
	border: 1px solid rgb(0, 0, 0); 
	padding: 10px; font-size: 11px;
}

.k2 {
	font-family: 'lucida grande',verdana,sans-serif; 
	background-color: rgb(250, 250, 250); 
	border: 1px solid rgb(0, 0, 0); 
	padding: 10px; font-size: 11px;
}

.k3 {
	font-family: 'lucida grande',verdana,sans-serif; 
	background-color: rgb(250, 250, 250); 
	border: 1px solid rgb(0, 0, 0); 
	padding: 10px; font-size: 11px;
}

.k4 {
	font-family: 'lucida grande',verdana,sans-serif; 
	background-color: rgb(250, 250, 250); 
	border: 1px solid rgb(0, 0, 0); 
	padding: 10px; font-size: 11px;
}

.k5 {
	font-family: 'lucida grande',verdana,sans-serif; 
	background-color: rgb(250, 250, 250); 
	border: 1px solid rgb(0, 0, 0); 
	padding: 10px; font-size: 11px;
}

.k6 {
	font-family: 'lucida grande',verdana,sans-serif; 
	background-color: rgb(250, 250, 250); 
	border: 1px solid rgb(0, 0, 0); 
	padding: 10px; font-size: 11px;
}

.k7 {
	font-family: 'lucida grande',verdana,sans-serif; 
	background-color: rgb(250, 250, 250); 
	border: 1px solid rgb(0, 0, 0); 
	padding: 10px; font-size: 11px;
}

.k8 {
	font-family: 'lucida grande',verdana,sans-serif; 
	background-color: rgb(250, 250, 250); 
	border: 1px solid rgb(0, 0, 0); 
	padding: 10px; font-size: 11px;
}

.k9 {
	font-family: 'lucida grande',verdana,sans-serif; 
	background-color: rgb(250, 250, 250); 
	border: 1px solid rgb(0, 0, 0); 
	padding: 10px; font-size: 11px;
}

.k10 {
	font-family: 'lucida grande',verdana,sans-serif; 
	background-color: rgb(250, 250, 250); 
	border: 1px solid rgb(0, 0, 0); 
	padding: 10px; font-size: 11px;
}

</style>
		
